[gd_scene load_steps=4 format=2]

[ext_resource path="res://shared/learning/learning.tscn" type="PackedScene" id=1]
[ext_resource path="res://artiphonie/learning/learning.gd" type="Script" id=2]
[ext_resource path="res://shared/instruction/instruction.tscn" type="PackedScene" id=3]

[node name="learning_artiphonie" type="Control"]
anchor_right = 1.0
anchor_bottom = 1.0
script = ExtResource( 2 )
__meta__ = {
"_edit_use_anchors_": false
}

[node name="learning" parent="." instance=ExtResource( 1 )]

[node name="Instruction" parent="." instance=ExtResource( 3 )]
